##################################
## CONFIGURATION FOR COPY PASTE ##
##################################
TCEMAIN.table.pages {
  disablePrependAtCopy = 1
  disableHideAtCopy = 1
}

TCEMAIN.table.tt_content {
  disablePrependAtCopy = 1
  disableHideAtCopy = 1
}